…
But now let’s really do it with a for loop.

``` r
output = vector("list", length = 100)

for (i in 1:100) {
  output[[i]] = sim_mean_sd(samp_size = 30)
}

bind_rows(output)
```

    ## # A tibble: 100 x 2
    ##     mean    sd
    ##    <dbl> <dbl>
    ##  1  3.53  3.18
    ##  2  3.44  3.84
    ##  3  3.45  3.53
    ##  4  1.68  3.69
    ##  5  3.95  4.22
    ##  6  3.27  4.34
    ##  7  2.05  4.05
    ##  8  3.10  3.72
    ##  9  3.55  4.11
    ## 10  3.87  3.79
    ## # … with 90 more rows
…
